…
It works as expected, however it’s not the prettiest. The problem with summarize_avg is that it takes the column name as string not symbol, let’s say we use our function in an analysis pipeline like the example below:

starwars %>% 
  group_by(species) %>% 
  summarize_avg("height")

## # A tibble: 38 x 2
##    species     avg
##    <chr>     <dbl>
##  1 <NA>        160
##  2 Aleena       79
##  3 Besalisk    198
##  4 Cerean      198
##  5 Chagrian    196
##  6 Clawdite    168
##  7 Droid       140
##  8 Dug         112
##  9 Ewok         88
## 10 Geonosian   183
## # … with 28 more rows
…
