…
for debugging quosures, use rlang::quo_squash to flatten the objects inside

quo_squash(q3)

## list(mouse, mouse)

Example: Partition a dataframe with select() inputs

We’ll write a function called partition that will create two data frames in a list partitioning the original dataframe to columns

for example partition(starwars, name:mass, films) would return

## [[1]]
## # A tibble: 87 x 4
##    name               height  mass films    
##    <chr>               <int> <dbl> <list>   
##  1 Luke Skywalker        172    77 <chr [5]>
##  2 C-3PO                 167    75 <chr [6]>
##  3 R2-D2                  96    32 <chr [7]>
##  4 Darth Vader           202   136 <chr [4]>
##  5 Leia Organa           150    49 <chr [5]>
##  6 Owen Lars             178   120 <chr [3]>
##  7 Beru Whitesun lars    165    75 <chr [3]>
##  8 R5-D4                  97    32 <chr [1]>
##  9 Biggs Darklighter     183    84 <chr [1]>
## 10 Obi-Wan Kenobi        182    77 <chr [6]>
## # … with 77 more rows
## 
## [[2]]
## # A tibble: 87 x 9
##    hair_color skin_color eye_color birth_year gender homeworld species
##    <chr>      <chr>      <chr>          <dbl> <chr>  <chr>     <chr>  
##  1 blond      fair       blue            19   male   Tatooine  Human  
##  2 <NA>       gold       yellow         112   <NA>   Tatooine  Droid  
##  3 <NA>       white, bl… red             33   <NA>   Naboo     Droid  
##  4 none       white      yellow          41.9 male   Tatooine  Human  
##  5 brown      light      brown           19   female Alderaan  Human  
##  6 brown, gr… light      blue            52   male   Tatooine  Human  
##  7 brown      light      blue            47   female Tatooine  Human  
##  8 <NA>       white, red red             NA   <NA>   Tatooine  Droid  
##  9 black      light      brown           24   male   Tatooine  Human  
## 10 auburn, w… fair       blue-gray       57   male   Stewjon   Human  
## # … with 77 more rows, and 2 more variables: vehicles <list>,
## #   starships <list>
…
This is simply select doesn’t know how to work with a list like <S3: quosures>.

Therefore we have splice-unquote operator !!! to work with this. Let’s now check qq_show with !!!

qq_show(select(starwars, !!!dots))

## select(starwars, ^name:mass, ^films)

Aha! now we have both quosures here. That’s good. And now our select statement should evaluate

select(starwars, !!!dots)

## # A tibble: 87 x 4
##    name               height  mass films    
##    <chr>               <int> <dbl> <list>   
##  1 Luke Skywalker        172    77 <chr [5]>
##  2 C-3PO                 167    75 <chr [6]>
##  3 R2-D2                  96    32 <chr [7]>
##  4 Darth Vader           202   136 <chr [4]>
##  5 Leia Organa           150    49 <chr [5]>
##  6 Owen Lars             178   120 <chr [3]>
##  7 Beru Whitesun lars    165    75 <chr [3]>
##  8 R5-D4                  97    32 <chr [1]>
##  9 Biggs Darklighter     183    84 <chr [1]>
## 10 Obi-Wan Kenobi        182    77 <chr [6]>
## # … with 77 more rows

Let’s define the first part of partition function again with splice-unquote operator

partition <- function(data, ...) {
  dots <- enquos(...)
  list(
    select(data, !!!dots),
    NULL
  )
}

partition(starwars, films, name:height)

## [[1]]
## # A tibble: 87 x 3
##    films     name               height
##    <list>    <chr>               <int>
##  1 <chr [5]> Luke Skywalker        172
##  2 <chr [6]> C-3PO                 167
##  3 <chr [7]> R2-D2                  96
##  4 <chr [4]> Darth Vader           202
##  5 <chr [5]> Leia Organa           150
##  6 <chr [3]> Owen Lars             178
##  7 <chr [3]> Beru Whitesun lars    165
##  8 <chr [1]> R5-D4                  97
##  9 <chr [1]> Biggs Darklighter     183
## 10 <chr [6]> Obi-Wan Kenobi        182
## # … with 77 more rows
## 
## [[2]]
## NULL
…
partition <- function(data, ...) {
  dots <- enquos(...)
  neg_dots <- map(dots, function(dot) quo(-!!dot))
  
  list(
    select(data, !!!dots),
    select(data, !!!neg_dots)
  )
}

partition(starwars, films, name:height)

## [[1]]
## # A tibble: 87 x 3
##    films     name               height
##    <list>    <chr>               <int>
##  1 <chr [5]> Luke Skywalker        172
##  2 <chr [6]> C-3PO                 167
##  3 <chr [7]> R2-D2                  96
##  4 <chr [4]> Darth Vader           202
##  5 <chr [5]> Leia Organa           150
##  6 <chr [3]> Owen Lars             178
##  7 <chr [3]> Beru Whitesun lars    165
##  8 <chr [1]> R5-D4                  97
##  9 <chr [1]> Biggs Darklighter     183
## 10 <chr [6]> Obi-Wan Kenobi        182
## # … with 77 more rows
## 
## [[2]]
## # A tibble: 87 x 10
##     mass hair_color skin_color eye_color birth_year gender homeworld
##    <dbl> <chr>      <chr>      <chr>          <dbl> <chr>  <chr>    
##  1    77 blond      fair       blue            19   male   Tatooine 
##  2    75 <NA>       gold       yellow         112   <NA>   Tatooine 
##  3    32 <NA>       white, bl… red             33   <NA>   Naboo    
##  4   136 none       white      yellow          41.9 male   Tatooine 
##  5    49 brown      light      brown           19   female Alderaan 
##  6   120 brown, gr… light      blue            52   male   Tatooine 
##  7    75 brown      light      blue            47   female Tatooine 
##  8    32 <NA>       white, red red             NA   <NA>   Tatooine 
##  9    84 black      light      brown           24   male   Tatooine 
## 10    77 auburn, w… fair       blue-gray       57   male   Stewjon  
## # … with 77 more rows, and 3 more variables: species <chr>,
## #   vehicles <list>, starships <list>
…
