…
If you have some experience wriitng R functions, there is possibility you may have hit a problem called unintended data masking. This can introduce subtle but hard to find bugs. We’ll have a look at it in this post as well as advanced use of !! operator. Namely bypassing the data mask.

As always it’s best understood via an example. Below multiply_height is a very simple function, taking a dataframe named data, and (assuming there is height) multiplying height by amount and transmuting.

library(tidyverse)
library(rlang)

multiply_height <- function(data, amount) {
  transmute(data, height*amount)
}

multiply_height(starwars, 10)

## # A tibble: 87 x 1
##    `height * amount`
##                <dbl>
##  1              1720
##  2              1670
##  3               960
##  4              2020
##  5              1500
##  6              1780
##  7              1650
##  8               970
##  9              1830
## 10              1820
## # … with 77 more rows

if you are creating a fuction for the package you have no idea what’s going to be in the data and data is used for data mask. Any columns in the data will be masking the objects used in the arguments in the transmute call. Let’s shadow the amount argument by creating an amount column.

starwars %>% 
  mutate(amount = 0) %>% 
  multiply_height(10)

## # A tibble: 87 x 1
##    `height * amount`
##                <dbl>
##  1                 0
##  2                 0
##  3                 0
##  4                 0
##  5                 0
##  6                 0
##  7                 0
##  8                 0
##  9                 0
## 10                 0
## # … with 77 more rows

As seen above amount column in the data has higher priority over thge argument amount in the transmute call. Therefore we introduced a bug to our function.

Unquote operator !! is useful at this point. Let’s define our multiply_height function once again and unqoute amount argument

multiply_height <- function(data, amount) {
  transmute(data, height * !!amount)
}

starwars %>% 
  mutate(amount = 0) %>% 
  multiply_height(10)

## # A tibble: 87 x 1
##    `height * 10`
##            <dbl>
##  1          1720
##  2          1670
##  3           960
##  4          2020
##  5          1500
##  6          1780
##  7          1650
##  8           970
##  9          1830
## 10          1820
## # … with 77 more rows
…
